[
    {
      "ime": "Andjela",
      "prezime": "Jovanovic",
      "mesto": "Beograd",
      "godiste": "1998",
      "visina": "165",
      "prosek": "8.72"
    },
    {
      "ime": "Tea",
      "prezime": "Dogandzic",
      "mesto": "Kraljevo",
      "godiste": "1998",
      "visina": "170",
      "prosek": "9.90"
    },
    {
      "ime": "Marko",
      "prezime": "Zjalic",
      "mesto": "Beograd",
      "godiste": "1997",
      "visina": "197",
      "prosek": "8.72"
    }
]