[{
  "id": "food-experience-1",
  "title": "Menù",
  "header": "Menù",
  "sottotitolo_food": {
    "value": "<p>Scopri le proposte gastronomiche a te riservate.</p>",
    "format": "formatted_text",
    "processed": "<p>Scopri le proposte gastronomiche a te riservate.</p>"
  },
  "immagine_food": {
    "id": "food-imagine-1",
    "href": "https://c4.wallpaperflare.com/wallpaper/900/249/123/frozen-raspberries-bowl-hd-wallpaper-wallpaper-preview.jpg",
    "meta": {
      "alt": "fresh ripe organic raspberries and blackberries in a bowl on a gray background",
      "title": "fresh ripe organic raspberries and blackberries in a bowl on a gray background",
      "width": "1170",
      "height": "507"
    }
  },
  "programma_experience": [
    {
      "giorno": "2021-02-26T01:00:00+01:00",
      "experience": {
        "inizio": "Venerdi 26 Febbraio",
        "tipo": "Cena",
        "attivita": "Cena in Hotel",
        "sito": "Hotel",
        "descrizione": "",
        "vivande": "",
        "allergeni": ""
      }
    },
    {
      "giorno": "2021-02-27T01:00:00+01:00",
      "experience": {
        "inizio": "Sabato 27 Febbraio",
        "tipo": "Colazione",
        "attivita": "Colazione in Hotel",
        "sito": "Hotel",
        "descrizione": "",
        "vivande": "",
        "allergeni": ""
      }
    },
    {
      "giorno": "2021-02-27T01:00:00+01:00",
      "experience": {
        "inizio": "Sabato 27 Febbraio",
        "tipo": "Pranzo",
        "attivita": "Pranzo in Hotel",
        "sito": "Hotel",
        "descrizione": "",
        "vivande": "",
        "allergeni": ""
      }
    },
    {
      "giorno": "2021-02-27T01:00:00+01:00",
      "experience": {
        "inizio": "Sabato 27 Febbracio",
        "tipo": "Cena",
        "attivita": "Cena in Hotel",
        "sito": "Hotel",
        "descrizione": "",
        "vivande": "",
        "allergeni": ""
      }
    }
  ]
}]